"id_usuario","genero_usuario","edad_usuario"
599394,"OTRO",41
597800,"OTRO",26
594400,"OTRO",37
587540,"OTRO",32
587263,"F",24
584660,"F",26
580295,"OTRO",47
576373,"F",46
576256,"F",46
571722,"OTRO",30
569592,"OTRO",37
567227,"OTRO",18
565093,"OTRO",57
556125,"M",22
555701,"OTRO",54
555272,"OTRO",25
545719,"F",44
535328,"F",55
534668,"F",19
532566,"F",26
528285,"F",28
523321,"OTRO",25
522842,"F",41
514774,"M",58
514215,"M",28
511759,"M",41
504959,"F",22
501037,"OTRO",32
500755,"F",21
499998,"F",22
499013,"F",28
496442,"F",34
495565,"OTRO",49
493618,"F",18
492173,"OTRO",28
482233,"F",30
482081,"M",19
479263,"OTRO",24
473865,"F",27
470914,"M",29
461861,"M",26
457812,"F",21
457376,"M",30
455231,"OTRO",19
451335,"F",21
446405,"F",25
442269,"F",61
441409,"OTRO",34
439519,"OTRO",28
435375,"F",26
428155,"OTRO",20
424201,"F",39
423192,"F",52
419742,"F",56
417813,"F",32
413277,"M",43
412778,"OTRO",45
409853,"F",19
406542,"M",46
405095,"F",44
400318,"M",28
396789,"M",40
391791,"M",30
391635,"M",21
390664,"F",37
378825,"F",32
373785,"M",54
373567,"F",27
365215,"F",32
364920,"M",29
360281,"OTRO",34
355800,"F",28
352427,"M",27
348611,"F",22
344636,"OTRO",26
343350,"OTRO",32
337099,"F",23
328711,"OTRO",31
328682,"F",41
318027,"F",34
311439,"OTRO",35
297519,"M",23
289069,"F",36
284107,"M",44
280875,"OTRO",21
279044,"M",42
277785,"M",27
274841,"OTRO",39
271265,"OTRO",42
271133,"F",25
271036,"OTRO",45
270118,"OTRO",30
265980,"M",26
263333,"OTRO",55
260132,"F",27
257075,"OTRO",23
248566,"OTRO",19
245518,"OTRO",41
245429,"M",57
243329,"F",26
236664,"OTRO",23
236433,"M",27
232709,"F",26
227456,"F",27
227297,"F",52
220327,"M",47
216999,"OTRO",30
213876,"OTRO",20
212191,"OTRO",25
211779,"F",23
207992,"M",21
202455,"F",45
201112,"F",40
198580,"M",31
198213,"M",30
197658,"F",44
193450,"M",36
193100,"F",46
192690,"M",31
185822,"M",28
181266,"F",41
179732,"F",41
171893,"F",23
165983,"F",26
164253,"F",29
163678,"F",41
161898,"OTRO",45
158442,"F",30
157633,"OTRO",34
153381,"OTRO",25
148570,"M",39
148161,"M",35
148084,"F",25
147483,"M",38
132709,"F",32
132111,"F",24
124508,"M",36
124495,"M",29
124246,"M",60
123323,"M",37
121665,"F",33
120596,"OTRO",23
116137,"OTRO",31
112399,"OTRO",47
112350,"OTRO",49
112215,"F",38
110020,"F",42
109171,"M",24
108355,"F",44
105050,"OTRO",28
104823,"OTRO",33
102414,"F",43
98402,"F",21
97421,"F",30
97231,"M",29
90978,"OTRO",35
89565,"F",57
88190,"M",24
86377,"OTRO",26
80251,"OTRO",38
80181,"F",38
79377,"OTRO",32
77022,"OTRO",39
73352,"M",31
70394,"M",26
66251,"M",27
65176,"OTRO",29
62231,"F",47
61762,"OTRO",32
55419,"F",31
52085,"M",20
44499,"M",41
43723,"M",40
43377,"OTRO",29
40494,"M",52
39680,"F",59
39137,"M",39
38079,"F",20
37306,"M",38
36319,"M",33
35983,"F",42
35298,"M",25
34232,"M",45
33865,"M",49
33580,"F",34
32398,"F",27
31371,"M",29
28579,"F",24
27098,"F",45
26871,"OTRO",35
26703,"OTRO",31
26612,"OTRO",27
23241,"F",49
20217,"OTRO",30
14204,"OTRO",27
11917,"F",32
11441,"F",32
9159,"F",29
5493,"F",50
5457,"F",42
